[
    {
        "topic": "Privacy Statement",
        "text": "We are committed to protecting your privacy. Authorized employees within the company on a need to know basis only use any information collected from individual customers. We constantly review our systems and data to ensure the best possible service to our customers. Parliament has created specific offences for unauthorised actions against computer systems and data. We will investigate any such actions with a view to prosecuting and/or taking civil proceedings to recover damages against those responsible."
    },
    {
        "topic": "Confidentiality",
        "text": "We are registered under the Data Protection Act 1998 and as such, any information concerning the Client and their respective Client Records may be passed to third parties. However, Client records are regarded as confidential and therefore will not be divulged to any third party, other than [our manufacturer/supplier(s) and] if legally required to do so to the appropriate authorities. Clients have the right to request sight of, and copies of any and all Client Records we keep, on the proviso that we are given reasonable notice of such a request. Clients are requested to retain copies of any literature issued in relation to the provision of our services. Where appropriate, we shall issue Client’s with appropriate written information, handouts or copies of records as part of an agreed contract, for the benefit of both parties. We will not sell, share, or rent your personal information to any third party or use your e-mail address for unsolicited mail. Any emails sent by this Company will only be in connection with the provision of agreed services and products."
    },
    {
        "topic": "Exclusions and Limitations",
        "text": "The information on this web site is provided on an 'as is' basis. To the fullest extent permitted by law, this Company: excludes all representations and warranties relating to this website and its contents or which is or may be provided by any affiliates or any other third party, including in relation to any inaccuracies or omissions in this website and/or the Company’s literature; and excludes all liability for damages arising out of or in connection with your use of this website. This includes, without limitation, direct loss, loss of business or profits (whether or not the loss of such profits was foreseeable, arose in the normal course of things or you have advised this Company of the possibility of such potential loss), damage caused to your computer, computer software, systems and programs and the data thereon or any other direct or indirect, consequential and incidental damages. This Company does not however exclude liability for death or personal injury caused by its negligence. The above exclusions and limitations apply only to the extent permitted by law. None of your statutory rights as a consumer are affected. "
    },
    {
        "topic": "Availability",
        "text": "Unless otherwise stated, the services featured on this website are only available within the United Kingdom, or in relation to postings from the United Kingdom. All advertising is intended solely for the United Kingdom market. You are solely responsible for evaluating the fitness for a particular purpose of any downloads, programs and text available through this site. Redistribution or republication of any part of this site or its content is prohibited, including such by framing or other similar or any other means, without the express written consent of the Company. The Company does not warrant that the service from this site will be uninterrupted, timely or error free, although it is provided to the best ability. By using this service you thereby indemnify this Company, its employees, agents and affiliates against any loss or damage, in whatever manner, howsoever caused."
    },
    {
        "topic": "Log Files",
        "text": "We use IP addresses to analyse trends, administer the site, track user’s movement, and gather broad demographic information for aggregate use. IP addresses are not linked to personally identifiable information. Additionally, for systems administration, detecting usage patterns and troubleshooting purposes, our web servers automatically log standard access information including browser type, access times/open mail, URL requested, and referral URL. This information is not shared with third parties and is used only within this Company on a need-to-know basis. Any individually identifiable information related to this data will never be used in any way different to that stated above without your explicit permission."
    },
    {
        "topic": "Copyright Notice",
        "text": "Copyright and other relevant intellectual property rights exists on all text relating to the Company’s services and the full content of this website."
    },
    {
        "topic": "Communication",
        "text": "We have several different e-mail addresses for different queries. These, & other contact information, can be found on our Contact Us link on our website or via Company literature or via the Company’s stated telephone, facsimile or mobile telephone numbers."
    },
    {
        "topic": "Notification of Changes",
        "text": "The Company reserves the right to change these conditions from time to time as it sees fit and your continued use of the site will signify your acceptance of any adjustment to these terms. If there are any changes to our privacy policy, we will announce that these changes have been made on our home page and on other key pages on our site. If there are any changes in how we use our site customers’ Personally Identifiable Information, notification by e-mail or postal mail will be made to those affected by this change. Any changes to our privacy policy will be posted on our web site 30 days prior to these changes taking place. You are therefore advised to re-read this statement on a regular basis"
    },
    {
        "boldText": "These terms and conditions form part of the Agreement between the Client and ourselves. Your accessing of this application and/or undertaking of a booking or Agreement indicates your understanding, agreement to and acceptance, of the Disclaimer Notice and the full Terms and Conditions contained herein. Your statutory Consumer Rights are unaffected."
    }
]
